{
  "filterCharacteristics": [
    {
      "name": "color",
      "id": "charsColor_Id_IncludesAllColorsInCharacteristicsValues",
      "type": "ColorPicker",
      "data": [
        {
          "name": "Black",
          "value": "Black",
          "default": false,
          "quantity": 5
        },
        {
          "name": "White",
          "value": "White",
          "default": false,
          "quantity": 5
        },
        {
          "name": "gold",
          "value": "gold",
          "default": false,
          "quantity": 5
        },
        {
          "name": "blue",
          "value": "blue",
          "default": false,
          "quantity": 5
        },
        {
          "name": "red",
          "value": "red",
          "default": false,
          "quantity": 5
        },
        {
          "name": "Black",
          "value": "Black",
          "default": false,
          "quantity": 5
        }
      ],
      "default": false
    },
    {
      "name": "storage",
      "id": "charsStorage_Id_IncludesAllStorageSizesInCharacteristicsValues",
      "type": "Button",
      "data": [
        {
          "name": "64GB",
          "value": "64",
          "default": false,
          "quantity": 5
        },
        {
          "name": "128GB",
          "value": "128",
          "default": false,
          "quantity": 5
        },
        {
          "name": "32GB",
          "value": "32",
          "default": false,
          "quantity": 5
        }
      ],
      "default": false
    },
    {
      "name": "Availability",
      "id": "charsAvailability_Id_IncludesAllAvailabilitySizesInCharacteristicsValues",
      "type": "Button",
      "data": [
        {
          "name": "In Stock",
          "value": "Instock",
          "default": false,
          "quantity": 5
        },
        {
          "name": "Out of stock",
          "value": "outOfStock",
          "default": false,
          "quantity": 0
        },
        {
          "name": "Pre order",
          "value": "PreOrder",
          "default": false,
          "quantity": 5
        }
      ],
      "default": false
    },
    {
      "name": "PriceRange",
      "id": "charsPriceRange_Id_IncludesAllPriceRangeSizesInCharacteristicsValues",
      "type": "Badge",
      "data": [
        {
          "name": "LessThan500EUR",
          "value": "0 to 499",
          "default": false,
          "quantity": 10
        },
        {
          "name": "Between500EURAnd1000EUR",
          "value": "500 to 1000",
          "default": false,
          "quantity": 10
        }
      ],
      "default": false
    },
    {
      "name": "brand",
      "id": "charsBrand_Id_IncludesAllBrandSizesInCharacteristicsValues",
      "type": "Label",
      "data": [
        {
          "name": "Apple",
          "value": "Apple",
          "default": false,
          "quantity": 5
        },
        {
          "name": "Samsung",
          "value": "Samsung",
          "default": false,
          "quantity": 5
        },
        {
          "name": "LG",
          "value": "LG",
          "default": false,
          "quantity": 5
        },
        {
          "name": "Sony",
          "value": "Sony",
          "default": false,
          "quantity": 5
        },
        {
          "name": "Nokia",
          "value": "Nokia",
          "default": false,
          "quantity": 5
        },
        {
          "name": "CAT",
          "value": "CAT",
          "default": false,
          "quantity": 5
        },
        {
          "name": "Honor",
          "value": "Honor",
          "default": false,
          "quantity": 5
        },
        {
          "name": "HTC",
          "value": "128",
          "default": false,
          "quantity": 5
        },
        {
          "name": "Lenovo",
          "value": "Lenovo",
          "default": false,
          "quantity": 5
        }
      ],
      "default": false
    }
  ],
  "pageNumber": 0,
  "itemsPerPage": 10,
  "resultCount": 10,
  "data": [
    {
      "category": "mobile-devices",
      "variant": {
        "id": "iphone12-variant-0",
        "name": "IPHONE BLACK 64GB",
        "description": "usDescription",
        "unavailabilityReasonCodes": [],
        "attachments": {
          "thumbnail": [
            {
              "key": "front",
              "value": "https://i.ibb.co/5Rnjb4N/mobile.png"
            },
            {
              "key": "frontAndBack",
              "value": "https://i.ibb.co/qNcq1ps/mobile-380x380.png"
            }
          ]
        },
        "prices": [],
        "bundle": false
      }
    },
    {
      "category": "mobile-devices",
      "variant": {
        "id": "iphone12-variant-1",
        "name": "IPHONE BLACK 62GB",
        "description": "usDescription",
        "unavailabilityReasonCodes": [],
        "attachments": {
          "thumbnail": [
            {
              "key": "front",
              "value": "https://i.ibb.co/5Rnjb4N/mobile.png"
            },
            {
              "key": "frontAndBack",
              "value": "https://i.ibb.co/qNcq1ps/mobile-380x380.png"
            }
          ]
        },
        "prices": [],
        "bundle": false
      }
    },
    {
      "category": "mobile-devices",
      "variant": {
        "id": "iphone12-variant-2",
        "name": "IPHONE BLACK 128GB",
        "description": "usDescription",
        "unavailabilityReasonCodes": [],
        "attachments": {
          "thumbnail": [
            {
              "key": "front",
              "value": "https://i.ibb.co/5Rnjb4N/mobile.png"
            },
            {
              "key": "frontAndBack",
              "value": "https://i.ibb.co/qNcq1ps/mobile-380x380.png"
            }
          ]
        },
        "prices": [],
        "bundle": false
      }
    },
    {
      "category": "mobile-devices",
      "variant": {
        "id": "iphone12-variant-3",
        "name": "IPHONE 5 BLACK 64GB",
        "description": "usDescription",
        "unavailabilityReasonCodes": [],
        "attachments": {
          "thumbnail": [
            {
              "key": "front",
              "value": "https://i.ibb.co/5Rnjb4N/mobile.png"
            },
            {
              "key": "frontAndBack",
              "value": "https://i.ibb.co/qNcq1ps/mobile-380x380.png"
            }
          ]
        },
        "prices": [],
        "bundle": false
      }
    },
    {
      "category": "mobile-devices",
      "variant": {
        "id": "iphone12-variant-4",
        "name": "IPHONE 6 BLACK 64GB",
        "description": "usDescription",
        "unavailabilityReasonCodes": [],
        "attachments": {
          "thumbnail": [
            {
              "key": "front",
              "value": "https://i.ibb.co/5Rnjb4N/mobile.png"
            },
            {
              "key": "frontAndBack",
              "value": "https://i.ibb.co/qNcq1ps/mobile-380x380.png"
            }
          ]
        },
        "prices": [],
        "bundle": false
      }
    },
    {
      "category": "mobile-devices",
      "variant": {
        "id": "iphone12-variant-5",
        "name": "IPHONE 7 BLACK 64GB",
        "description": "usDescription",
        "unavailabilityReasonCodes": [],
        "attachments": {
          "thumbnail": [
            {
              "key": "front",
              "value": "https://i.ibb.co/5Rnjb4N/mobile.png"
            },
            {
              "key": "frontAndBack",
              "value": "https://i.ibb.co/qNcq1ps/mobile-380x380.png"
            }
          ]
        },
        "prices": [],
        "bundle": false
      }
    },
    {
      "category": "mobile-devices",
      "variant": {
        "id": "iphone12-variant-6",
        "name": "IPHONE 8 BLACK 64GB",
        "description": "usDescription",
        "unavailabilityReasonCodes": [],
        "attachments": {
          "thumbnail": [
            {
              "key": "front",
              "value": "https://i.ibb.co/5Rnjb4N/mobile.png"
            },
            {
              "key": "frontAndBack",
              "value": "https://i.ibb.co/qNcq1ps/mobile-380x380.png"
            }
          ]
        },
        "prices": [],
        "bundle": false
      }
    },
    {
      "category": "mobile-devices",
      "variant": {
        "id": "iphone12-variant-7",
        "name": "IPHONE 8 BLACK 64GB",
        "description": "usDescription",
        "unavailabilityReasonCodes": [],
        "attachments": {
          "thumbnail": [
            {
              "key": "front",
              "value": "https://i.ibb.co/5Rnjb4N/mobile.png"
            },
            {
              "key": "frontAndBack",
              "value": "https://i.ibb.co/qNcq1ps/mobile-380x380.png"
            }
          ]
        },
        "prices": [],
        "bundle": false
      }
    },
    {
      "category": "mobile-devices",
      "variant": {
        "id": "iphone12-variant-8",
        "name": "IPHONE 10 BLACK 64GB",
        "description": "usDescription",
        "unavailabilityReasonCodes": [],
        "attachments": {
          "thumbnail": [
            {
              "key": "front",
              "value": "https://i.ibb.co/5Rnjb4N/mobile.png"
            },
            {
              "key": "frontAndBack",
              "value": "https://i.ibb.co/qNcq1ps/mobile-380x380.png"
            }
          ]
        },
        "prices": [],
        "bundle": false
      }
    },
    {
      "category": "mobile-devices",
      "variant": {
        "id": "iphone12-variant-9",
        "name": "IPHONE 11 BLACK 64GB",
        "description": "usDescription",
        "unavailabilityReasonCodes": [],
        "attachments": {
          "thumbnail": [
            {
              "key": "front",
              "value": "https://i.ibb.co/5Rnjb4N/mobile.png"
            },
            {
              "key": "frontAndBack",
              "value": "https://i.ibb.co/qNcq1ps/mobile-380x380.png"
            }
          ]
        },
        "prices": [],
        "bundle": false
      }
    }
  ],
  "characteristic": [
    {
      "key": "metaTagTitle",
      "value": ""
    },
    {
      "key": "metaTagDescription",
      "value": ""
    }
  ]
}
